{
  "auth_mode": "oauth_bearer",
  "quota_start": 3757168,
  "song_genres": {
    "status": 200,
    "top_level_keys": [
      "errors",
      "items",
      "page"
    ],
    "values_count": 2376,
    "target_like": [
      "acid jazz",
      "acoustic chill",
      "afro-cuban jazz",
      "afropiano",
      "amapiano",
      "ambient",
      "ambient / experimental",
      "ambient black metal",
      "ambient country",
      "ambient dub",
      "ambient dub techno",
      "ambient folk",
      "ambient fusion",
      "ambient guitar",
      "ambient house",
      "ambient idm",
      "ambient industrial",
      "ambient jazz",
      "ambient lo-fi",
      "ambient pop",
      "ambient post-rock",
      "ambient synth",
      "ambient techno",
      "ambient trance",
      "ambient worship",
      "anime piano",
      "arabic jazz",
      "avant-garde jazz",
      "big band jazz",
      "bossa nova jazz",
      "brazilian jazz",
      "carnatic classical",
      "chill baile",
      "chill beats",
      "chill breakcore",
      "chill dream pop",
      "chill drill",
      "chill house",
      "chill lounge",
      "chill out",
      "chill out/trip-hop/lounge",
      "chill phonk",
      "chill pop",
      "chill r&b",
      "chillhop",
      "chillstep",
      "chillsynth",
      "chillwave",
      "chinese classical",
      "christian jazz",
      "christian lo-fi",
      "christmas: classical",
      "christmas: jazz",
      "classical",
      "classical bass",
      "classical crossover",
      "classical guitar",
      "classical harp",
      "classical jazz fusion",
      "classical period",
      "classical piano",
      "compositional ambient",
      "contemporary classical",
      "contemporary classical piano",
      "contemporary jazz",
      "cool jazz",
      "crossover jazz",
      "dark ambient",
      "dark jazz",
      "dark synthpop",
      "darksynth",
      "deep ambient",
      "deep chill",
      "disney piano",
      "downtempo",
      "downtempo bass",
      "downtempo fusion",
      "drone ambient",
      "dungeon synth",
      "electro jazz",
      "electronic classical",
      "ethio jazz",
      "ethio-jazz",
      "ethiopian jazz",
      "experimental ambient",
      "experimental classical",
      "experimental jazz",
      "experimental synth",
      "fantasy synth",
      "forest synth",
      "free jazz",
      "french jazz",
      "future ambient",
      "glitch ambient",
      "guided meditation",
      "gypsy jazz",
      "high classical",
      "hindustani classical",
      "horror synth",
      "hot jazz"
    ],
    "sample_values": [
      "-",
      "1",
      "140 / deep dubstep / grime",
      "2-step",
      "21st century",
      "3 step",
      "432hz",
      "528hz",
      "5th wave emo",
      "8-bit",
      "a cappella",
      "abstract",
      "abstract hip hop",
      "acapella",
      "accordion",
      "acid house",
      "acid jazz",
      "acid rock",
      "acid techno",
      "acid trance",
      "acidcore",
      "acousmatic",
      "acoustic blues",
      "acoustic chill",
      "acoustic country",
      "acoustic cover",
      "acoustic folk",
      "acoustic pop",
      "acoustic punk",
      "acoustic rock",
      "adult alternative",
      "adult contemporary",
      "adult standards",
      "adult-contemporary",
      "adventista",
      "aesthetic rap",
      "african",
      "african dancehall",
      "african gospel",
      "african reggae",
      "afrikaans",
      "afrikaans pop",
      "afro dancehall",
      "afro drill",
      "afro house",
      "afro r&b",
      "afro soul",
      "afro tech",
      "afro-beat",
      "afro-cuban jazz"
    ]
  },
  "label_types": {
    "status": 200,
    "top_level_keys": [
      "errors",
      "labelTypes",
      "type"
    ],
    "values_count": 24,
    "target_like": [],
    "sample_values": [
      "[pias]",
      "alter k",
      "armada",
      "beggars",
      "believe",
      "bmg",
      "concord",
      "domino",
      "epitaph",
      "hybe",
      "label_types_list",
      "mad decent",
      "ninja tune",
      "other independent labels: \"indie\"",
      "secretly group",
      "self released",
      "sony",
      "t-series",
      "universal",
      "unknown",
      "wagram",
      "warner",
      "warp",
      "yg"
    ]
  },
  "queries": {
    "basic_weekly_growth": {
      "status": 200,
      "top_level_keys": [
        "errors",
        "items",
        "page",
        "related"
      ],
      "page": {
        "offset": 0,
        "limit": 10,
        "next": "/api/v2/top/songs?offset=10&limit=10",
        "previous": null,
        "total": 55249781,
        "cursor": "eyJpZFZhbHVlIjoiOTEzNzkzODM0IiwiZmllbGRWYWx1ZSI6NzYzMDU3Niwib3JkZXIiOiJkZXNjIiwibWV0cmljIjp0cnVlLCJwbGF0Zm9ybSI6InNwb3RpZnkiLCJtZXRyaWNUeXBlIjoic3RyZWFtcyIsInBlcmlvZCI6IndlZWsiLCJzb3J0QnkiOiJ2b2x1bWUifQ=="
      },
      "item_count": 10,
      "safe_item": {
        "keys": [
          "creditName",
          "imageUrl",
          "name",
          "releaseDate",
          "uuid"
        ],
        "sample": {
          "uuid": "7cb05850-56f5-492c-8863-fb93e40ec1a5",
          "name": "Arumuga Saamy",
          "creditName": "Sri Ram & Muthukumar",
          "imageUrl": true,
          "releaseDate": "2003-12-12T00:00:00+00:00"
        }
      },
      "error": [],
      "quota_remaining": "3757168"
    },
    "instrumental_weekly_growth": {
      "status": 200,
      "top_level_keys": [
        "errors",
        "items",
        "page",
        "related"
      ],
      "page": {
        "offset": 0,
        "limit": 10,
        "next": null,
        "previous": null,
        "total": 0,
        "cursor": ""
      },
      "item_count": 0,
      "safe_item": null,
      "error": [],
      "quota_remaining": "3757168"
    }
  },
  "quota_end": 3757168
}
